…
Milestone 4: Createing Tidy Data set with the Average of each variable for each Activity and each Subject
=========================================================================================================

    tidy_group <- group_by (tidy, subject_id, activity_labels)
    tidy_group %>% group_by (subject_id, activity_labels) %>% summarise_each(funs(mean)) -> tidy_aggregate

    ## `summarise_each()` is deprecated.
    ## Use `summarise_all()`, `summarise_at()` or `summarise_if()` instead.
    ## To map `funs` over all variables, use `summarise_all()`

    tidy_aggregate <- arrange (tidy_aggregate, subject_id, activity_labels)
    tidy_aggregate <- dplyr::rename(tidy_aggregate, subjectid = subject_id, activitylabels = activity_labels)
    tidy_aggregate[1:50, 1:5]

    ## # A tibble: 50 x 5
    ## # Groups:   subjectid [9]
    ##    subjectid     activitylabels tbodyaccmeanx tbodyaccmeany tbodyaccmeanz
    ##        <int>              <chr>         <dbl>         <dbl>         <dbl>
    ##  1         1             LAYING     0.2215982  -0.040513953    -0.1132036
    ##  2         1            SITTING     0.2612376  -0.001308288    -0.1045442
    ##  3         1           STANDING     0.2789176  -0.016137590    -0.1106018
    ##  4         1            WALKING     0.2773308  -0.017383819    -0.1111481
    ##  5         1 WALKING_DOWNSTAIRS     0.2891883  -0.009918505    -0.1075662
    ##  6         1   WALKING_UPSTAIRS     0.2554617  -0.023953149    -0.0973020
    ##  7         2             LAYING     0.2813734  -0.018158740    -0.1072456
    ##  8         2            SITTING     0.2770874  -0.015687994    -0.1092183
    ##  9         2           STANDING     0.2779115  -0.018420827    -0.1059085
    ## 10         2            WALKING     0.2764266  -0.018594920    -0.1055004
    ## # ... with 40 more rows
…
